{
  "table_name": "documento_presentado",
  "primary_key": "id_documento_presentado",
  "atributes": [],
  "foreign_keys": [
    {
      "table_name": "postulante",
      "name": "id_postulante",
      "unique": true,
      "example": 1
    },
    {
      "table_name": "convocatoria_documento",
      "name": "id_convocatoria_documento",
      "unique": true,
      "example": 1
    }
  ],
  "access_get": "ROL_KARDEX, ROL_POSTULANTE",
  "access_post": "ROL_KARDEX",
  "access_put": "ROL_KARDEX",
  "access_delete": "ROL_KARDEX"
}
