{
  "report_name": "reporte_convocatoria_documento",
  "description": "Devuelve todos los documentos de una determinada convocatoria.",
  "select": [
    {
      "table_name": "convocatoria_documento",
      "attributes": [
        {
          "name": "id_convocatoria_documento",
          "as": "id_convocatoria_documento",
          "type": "int"
        },
        {
          "name": "id_convocatoria",
          "as": "id_convocatoria",
          "type": "int"
        },
        {
          "name": "id_documento",
          "as": "id_documento",
          "type": "int"
        }
      ]
    },
    {
      "table_name": "documento",
      "attributes": [
        {
          "name": "nombre",
          "as": "nombre",
          "type": "string"
        }
      ]
    }
  ],
  "from": [
    "convocatoria_documento",
    "documento"
  ],
  "where": [
    {
      "table_name_1": "convocatoria_documento",
      "table_name_2": "documento",
      "id_table": "id_documento"
    }
  ],
  "inputs": [
    {
      "table_name": "convocatoria_documento",
      "attributes": [
        {
          "name": "id_convocatoria",
          "is_key": false,
          "type": "int"
        }
      ]
    }
  ],
  "access_post": "ROL_KARDEX, ROL_TRIBUNAL, ROL_POSTULANTE"
}
